[{
  "id": 1,
  "first_name": "3/4/2020",
  "importe": 16,
  "latitud": 40.9292486,
  "longitud": 23.1765232,
  "ciudad": "Xilópolis"
}, {
  "id": 2,
  "first_name": "5/26/2020",
  "importe": 72,
  "latitud": -10.1790674,
  "longitud": 123.5770012,
  "ciudad": "Manutapen"
}, {
  "id": 3,
  "first_name": "5/9/2020",
  "importe": 22,
  "latitud": 32.8565219,
  "longitud": -96.6038258,
  "ciudad": "Garland"
}, {
  "id": 4,
  "first_name": "8/15/2019",
  "importe": 53,
  "latitud": 27.9408161,
  "longitud": -101.211296,
  "ciudad": "Independencia"
}, {
  "id": 5,
  "first_name": "5/8/2020",
  "importe": 89,
  "latitud": 40.8262403,
  "longitud": 22.592555,
  "ciudad": "Áthyra"
}, {
  "id": 6,
  "first_name": "2/28/2020",
  "importe": 42,
  "latitud": 20.4225249,
  "longitud": 99.9185708,
  "ciudad": "Mae Sai"
}, {
  "id": 7,
  "first_name": "12/26/2019",
  "importe": 11,
  "latitud": 50.1209479,
  "longitud": 17.3831619,
  "ciudad": "Vrbno pod Pradědem"
}, {
  "id": 8,
  "first_name": "10/22/2019",
  "importe": 16,
  "latitud": 53.6125259,
  "longitud": 9.9659855,
  "ciudad": "Hamburg"
}, {
  "id": 9,
  "first_name": "4/16/2020",
  "importe": 29,
  "latitud": -7.5450262,
  "longitud": 111.6556388,
  "ciudad": "Krajan"
}, {
  "id": 10,
  "first_name": "10/8/2019",
  "importe": 40,
  "latitud": 35.939466,
  "longitud": 118.520324,
  "ciudad": "Muyuzi"
}]
